<svg version="1.1" id="Layer_1" xmlns="http://www.w3.org/2000/svg" x="0" y="0" width="434" height="434" viewBox="0 0 434 434" xml:space="preserve">
  <style>
    .st3{fill:#403e3e}
  </style>
  <path d="M661-128c119.8 0 217 97.2 217 217s-97.2 217-217 217-217-97.2-217-217 97.2-217 217-217z" fill="#f4000a"/>
  <path d="M560 74.1c0-28.2-.1-56.4 0-84.6.1-11.6 7.4-18.8 18.2-18.4 9.4.3 16.5 7 16.6 17.1.3 26 .3 52 0 78-.1 4.2.6 7.1 4.7 7.4 5 .4 4.9-3.8 4.9-7.2-.2-37.5-.4-75-.5-112.5 0-11.1 6.3-18.3 16.2-19.1 10.9-.8 19.4 6.3 19.4 17.2.2 38.2.1 76.5 0 114.8 0 3.5-.9 7.7 4 7.8 5 .1 4.9-4.3 4.9-8.1V-62.2c0-10.4 4.5-17.2 12.5-19.3 12.1-3.2 22.4 4.8 22.5 18 .1 27.7.1 55.4 0 83.1 0 15.7.1 31.4-.2 47.1-.1 3.8 1.1 5.8 4.7 5.8 3.8 0 4.5-2.4 4.5-5.9-.2-37.5-.2-75-.1-112.5 0-11.9 8-20 18.3-19.1 8.6.8 15.4 7.7 15.5 16.8.1 34.3-.3 68.6-.3 102.9 0 18.6-.7 37.2.5 55.8.1 2.2 0 4.6 2.8 5.3 3.1.7 4.7-1.5 5.4-3.8 3.7-11.1 9.7-21.3 13.5-32.4 3.8-11 9.6-20.9 20.5-26.7 4.9-2.6 9.9-4.2 15.5-3 9.3 2 13.2 7.9 9.9 16.7-15.4 40.8-28.3 76.5-42.3 117.9-6.3 18.7-16.7 35.3-29.7 50.4-39.1 45.5-126.9 38.9-151.1-27.9-7.1-19.6-10.6-39.8-10.8-60.5-.3-26.4 0-46.4 0-72.4z" fill-rule="evenodd" clip-rule="evenodd" fill="#fff"/>
  <g>
    <path d="M263.3 3.8c5.8 1.5 9.4 7.3 8.1 13.1-1.3 6-7.2 9.8-13.2 8.5-6.5-1.4-13.1-2.5-19.7-3.2-6.1-.7-10.5-6.2-9.9-12.3.7-6.1 6.2-10.5 12.3-9.9 7.3.8 14.7 2 22 3.6.1.2.2.2.4.2zm44.3 15c.7.2 1.3.4 2 .7 6.7 3.2 13.3 6.7 19.6 10.5 5.3 3.2 7 10 3.8 15.3-3.2 5.3-10 7-15.3 3.8-5.7-3.4-11.6-6.6-17.6-9.4-5.6-2.6-8-9.3-5.3-14.8 2.3-4.9 7.7-7.4 12.8-6.1zM195.6.7c4.3 1.1 7.7 4.8 8.3 9.5.7 6.1-3.6 11.7-9.7 12.4-6.6.8-13.2 1.9-19.7 3.4-6 1.4-12-2.4-13.3-8.4-1.4-6 2.4-12 8.4-13.3 7.2-1.6 14.6-2.9 22-3.8 1.3-.3 2.7-.2 4 .2zm167.7 56.7c1.8.5 3.6 1.4 5 2.8 5.3 5.2 10.4 10.7 15.1 16.4 3.9 4.7 3.3 11.8-1.4 15.7-4.7 3.9-11.8 3.3-15.7-1.4-4.2-5.1-8.8-10-13.5-14.7-4.4-4.3-4.5-11.4-.2-15.8 2.9-2.9 7-3.9 10.7-3zm40 54.7c3 .8 5.7 2.8 7.2 5.8 3.3 6.6 6.4 13.5 9 20.4 2.2 5.8-.7 12.2-6.4 14.4-5.8 2.2-12.2-.7-14.4-6.4-2.4-6.2-5.1-12.3-8.1-18.3-2.8-5.5-.6-12.2 4.9-15 2.5-1.3 5.3-1.5 7.8-.9zm20.1 64.8c4.3 1.1 7.7 4.7 8.3 9.3 1 7.3 1.6 14.8 1.8 22.2.2 6.2-4.6 11.3-10.8 11.5-6.2.2-11.3-4.6-11.5-10.8-.2-6.6-.8-13.3-1.6-19.9-.8-6.1 3.5-11.7 9.6-12.5 1.4-.3 2.8-.2 4.2.2zm-2.2 67.7c5.7 1.5 9.3 7.2 8.1 13-.7 3.7-1.6 7.4-2.5 11.1-.9 3.5-1.9 7-3 10.5-1.8 5.9-8.1 9.1-13.9 7.3-5.9-1.8-9.2-8.1-7.3-13.9 1-3.1 1.9-6.3 2.7-9.4.8-3.3 1.6-6.6 2.3-9.9 1.2-6 7.1-9.9 13.1-8.7.1-.1.3-.1.5 0zM77.9 36.1l18.9 1.6C52.3 67.4 20.7 111.8 7.3 164c-14.3 55.9-6 114.1 23.4 163.8 29.4 49.7 76.4 84.9 132.4 99.3 46.4 11.9 94.2 8.3 138.1-10.4 42.6-18.1 78.8-49.9 102-89.6 3.1-5.3 1.3-12.1-4-15.2-5.3-3.1-12.1-1.3-15.2 4-20.8 35.6-53.3 64.2-91.5 80.4-39.4 16.8-82.3 20-123.9 9.4-50.2-12.8-92.3-44.5-118.7-89-26.4-44.6-33.8-96.7-21-146.9 12.2-47.7 41.4-88.1 82.5-114.6l-9.7 21.6c-2.5 5.6 0 12.2 5.6 14.7s12.2 0 14.7-5.6l23-51.6c1.5-3.3 1.3-7.1-.6-10.2-1.5-2.6-4-4.4-6.8-5.1-.6-.2-1.2-.3-1.8-.3l-55.9-4.8c-6.1-.5-11.5 4-12.1 10.2-.5 6.1 4 11.5 10.1 12z" fill="#424040"/>
    <path class="st3" d="M206.6 244V130.6c-21.1 16.2-35.3 24.3-42.6 24.3-3.5 0-6.6-1.4-9.3-4.2-2.7-2.8-4.1-6-4.1-9.7 0-4.2 1.3-7.4 4-9.3 2.7-2 7.4-4.6 14.1-7.7 10.1-4.7 18.1-9.7 24.1-15 6-5.2 11.4-11.1 16-17.6 4.7-6.5 7.7-10.5 9.1-12 1.4-1.5 4.1-2.2 8-2.2 4.4 0 7.9 1.7 10.6 5.1 2.7 3.4 4 8.1 4 14.1v142.7c0 16.7-5.7 25-17.1 25-5.1 0-9.1-1.7-12.2-5.1-3.1-3.3-4.6-8.3-4.6-15zM154.4 348.2l-10.6-42v45.5c0 2.5-.6 4.4-1.7 5.7-1.1 1.3-2.6 1.9-4.5 1.9-1.8 0-3.3-.6-4.4-1.9-1.1-1.2-1.7-3.1-1.7-5.7v-52.1c0-2.9.7-4.8 2.2-5.8 1.5-1 3.5-1.5 6.1-1.5h4.1c2.5 0 4.3.2 5.4.7 1.1.4 2 1.3 2.5 2.4.5 1.2 1.2 3.1 1.8 5.7l9.6 36.1 9.6-36.1c.7-2.6 1.3-4.5 1.8-5.7.5-1.2 1.4-2 2.5-2.4 1.1-.4 2.9-.7 5.4-.7h4.1c2.5 0 4.6.5 6.1 1.5s2.2 2.9 2.2 5.8v52.1c0 2.5-.6 4.4-1.7 5.7-1.1 1.3-2.6 1.9-4.5 1.9-1.8 0-3.2-.6-4.4-1.9-1.1-1.3-1.7-3.1-1.7-5.7v-45.5l-10.6 42c-.7 2.7-1.2 4.7-1.7 6-.4 1.3-1.2 2.4-2.4 3.5-1.2 1-2.8 1.6-4.9 1.6-1.6 0-2.9-.3-4-1s-1.9-1.5-2.5-2.6c-.6-1-1.1-2.2-1.4-3.5 0-1.3-.3-2.6-.7-4zM209.4 351.1v-51.9c0-2.7.6-4.7 1.8-6.1 1.2-1.3 2.8-2 4.8-2s3.6.7 4.9 2c1.2 1.3 1.9 3.4 1.9 6.1v51.9c0 2.7-.6 4.8-1.9 6.1-1.2 1.3-2.9 2-4.9 2-1.9 0-3.5-.7-4.7-2-1.3-1.4-1.9-3.4-1.9-6.1zM255 299.1l25.7 38.8v-39.2c0-2.5.5-4.5 1.6-5.7 1.1-1.3 2.6-1.9 4.4-1.9 1.9 0 3.4.6 4.5 1.9 1.1 1.3 1.7 3.2 1.7 5.7v51.8c0 5.8-2.4 8.7-7.2 8.7-1.2 0-2.3-.2-3.2-.5-1-.3-1.9-.9-2.7-1.6-.8-.7-1.6-1.6-2.3-2.6-.7-1-1.4-2-2.2-3.1l-25-38.4v38.6c0 2.5-.6 4.4-1.8 5.7-1.2 1.3-2.7 1.9-4.5 1.9-1.9 0-3.4-.7-4.5-2s-1.7-3.2-1.7-5.7v-50.8c0-2.2.2-3.8.7-5.1.6-1.3 1.5-2.4 2.8-3.3 1.3-.9 2.7-1.3 4.3-1.3 1.2 0 2.2.2 3.1.6.9.4 1.6.9 2.2 1.6.6.7 1.3 1.5 2 2.6l2.1 3.3z"/>
  </g>
</svg>
