<svg xmlns="http://www.w3.org/2000/svg" width="434" height="434" viewBox="0 0 434 434">
  <path d="M661-128c119.8 0 217 97.2 217 217s-97.2 217-217 217-217-97.2-217-217 97.2-217 217-217z" fill="#f4000a"/>
  <path d="M560 74.1c0-28.2-.1-56.4 0-84.6.1-11.6 7.4-18.8 18.2-18.4 9.4.3 16.5 7 16.6 17.1.3 26 .3 52 0 78-.1 4.2.6 7.1 4.7 7.4 5 .4 4.9-3.8 4.9-7.2-.2-37.5-.4-75-.5-112.5 0-11.1 6.3-18.3 16.2-19.1 10.9-.8 19.4 6.3 19.4 17.2.2 38.2.1 76.5 0 114.8 0 3.5-.9 7.7 4 7.8 5 .1 4.9-4.3 4.9-8.1V-62.2c0-10.4 4.5-17.2 12.5-19.3 12.1-3.2 22.4 4.8 22.5 18 .1 27.7.1 55.4 0 83.1 0 15.7.1 31.4-.2 47.1-.1 3.8 1.1 5.8 4.7 5.8 3.8 0 4.5-2.4 4.5-5.9-.2-37.5-.2-75-.1-112.5 0-11.9 8-20 18.3-19.1 8.6.8 15.4 7.7 15.5 16.8.1 34.3-.3 68.6-.3 102.9 0 18.6-.7 37.2.5 55.8.1 2.2 0 4.6 2.8 5.3 3.1.7 4.7-1.5 5.4-3.8 3.7-11.1 9.7-21.3 13.5-32.4 3.8-11 9.6-20.9 20.5-26.7 4.9-2.6 9.9-4.2 15.5-3 9.3 2 13.2 7.9 9.9 16.7-15.4 40.8-28.3 76.5-42.3 117.9-6.3 18.7-16.7 35.3-29.7 50.4-39.1 45.5-126.9 38.9-151.1-27.9-7.1-19.6-10.6-39.8-10.8-60.5-.3-26.4 0-46.4 0-72.4z" fill-rule="evenodd" clip-rule="evenodd" fill="#fff"/>
  <g>
    <radialGradient id="a" cx="29.367" cy="217" r="28.867" gradientUnits="userSpaceOnUse">
      <stop offset=".574" stop-color="#130c0e"/>
      <stop offset=".798" stop-color="#130c0e"/>
      <stop offset="1" stop-color="#130c0e"/>
    </radialGradient>
    <path d="M29.4 245.9C13.5 245.9.5 233 .5 217c0-15.9 12.9-28.9 28.9-28.9 15.9 0 28.9 12.9 28.9 28.9-.1 15.9-13 28.9-28.9 28.9z" fill="url(#a)"/>
    <radialGradient id="b" cx="104.446" cy="217" r="28.867" gradientUnits="userSpaceOnUse">
      <stop offset=".574" stop-color="#130c0e"/>
      <stop offset=".798" stop-color="#130c0e"/>
      <stop offset="1" stop-color="#130c0e"/>
    </radialGradient>
    <path d="M104.4 245.9c-15.9 0-28.9-12.9-28.9-28.9 0-15.9 12.9-28.9 28.9-28.9s28.9 12.9 28.9 28.9c0 15.9-12.9 28.9-28.9 28.9z" fill="url(#b)"/>
    <radialGradient id="c" cx="179.463" cy="217" r="28.867" gradientUnits="userSpaceOnUse">
      <stop offset=".574" stop-color="#130c0e"/>
      <stop offset=".798" stop-color="#130c0e"/>
      <stop offset="1" stop-color="#130c0e"/>
    </radialGradient>
    <path d="M179.5 245.9c-15.9 0-28.9-12.9-28.9-28.9 0-15.9 12.9-28.9 28.9-28.9 15.9 0 28.9 12.9 28.9 28.9-.1 15.9-13 28.9-28.9 28.9z" fill="url(#c)"/>
    <radialGradient id="d" cx="254.542" cy="66.903" r="28.864" gradientUnits="userSpaceOnUse">
      <stop offset=".574" stop-color="#130c0e"/>
      <stop offset=".798" stop-color="#130c0e"/>
      <stop offset="1" stop-color="#130c0e"/>
    </radialGradient>
    <path d="M254.5 95.8c-15.9 0-28.9-12.9-28.9-28.9 0-15.9 12.9-28.9 28.9-28.9 15.9 0 28.9 12.9 28.9 28.9 0 15.9-12.9 28.9-28.9 28.9z" fill="url(#d)"/>
    <radialGradient id="e" cx="254.542" cy="217" r="28.865" gradientUnits="userSpaceOnUse">
      <stop offset=".574" stop-color="#130c0e"/>
      <stop offset=".798" stop-color="#130c0e"/>
      <stop offset="1" stop-color="#130c0e"/>
    </radialGradient>
    <path d="M254.5 245.9c-15.9 0-28.9-12.9-28.9-28.9 0-15.9 12.9-28.9 28.9-28.9 15.9 0 28.9 12.9 28.9 28.9 0 15.9-12.9 28.9-28.9 28.9z" fill="url(#e)"/>
    <radialGradient id="f" cx="254.542" cy="367.094" r="28.866" gradientUnits="userSpaceOnUse">
      <stop offset=".574" stop-color="#130c0e"/>
      <stop offset=".798" stop-color="#130c0e"/>
      <stop offset="1" stop-color="#130c0e"/>
    </radialGradient>
    <path d="M254.5 396c-15.9 0-28.9-12.9-28.9-28.9 0-15.9 12.9-28.9 28.9-28.9 15.9 0 28.9 12.9 28.9 28.9 0 15.9-12.9 28.9-28.9 28.9z" fill="url(#f)"/>
    <radialGradient id="g" cx="329.558" cy="141.922" r="28.864" gradientUnits="userSpaceOnUse">
      <stop offset=".574" stop-color="#130c0e"/>
      <stop offset=".798" stop-color="#130c0e"/>
      <stop offset="1" stop-color="#130c0e"/>
    </radialGradient>
    <path d="M329.6 170.8c-15.9 0-28.9-12.9-28.9-28.9 0-15.9 12.9-28.9 28.9-28.9 15.9 0 28.9 12.9 28.9 28.9-.1 16-13 28.9-28.9 28.9z" fill="url(#g)"/>
    <radialGradient id="h" cx="329.558" cy="217" r="28.865" gradientUnits="userSpaceOnUse">
      <stop offset=".574" stop-color="#130c0e"/>
      <stop offset=".798" stop-color="#130c0e"/>
      <stop offset="1" stop-color="#130c0e"/>
    </radialGradient>
    <path d="M329.6 245.9c-15.9 0-28.9-12.9-28.9-28.9 0-15.9 12.9-28.9 28.9-28.9 15.9 0 28.9 12.9 28.9 28.9-.1 15.9-13 28.9-28.9 28.9z" fill="url(#h)"/>
    <radialGradient id="i" cx="329.558" cy="292.015" r="28.866" gradientUnits="userSpaceOnUse">
      <stop offset=".574" stop-color="#130c0e"/>
      <stop offset=".798" stop-color="#130c0e"/>
      <stop offset="1" stop-color="#130c0e"/>
    </radialGradient>
    <path d="M329.6 320.9c-15.9 0-28.9-12.9-28.9-28.9 0-15.9 12.9-28.9 28.9-28.9 15.9 0 28.9 12.9 28.9 28.9-.1 16-13 28.9-28.9 28.9z" fill="url(#i)"/>
    <radialGradient id="j" cx="404.634" cy="217" r="28.867" gradientUnits="userSpaceOnUse">
      <stop offset=".574" stop-color="#130c0e"/>
      <stop offset=".798" stop-color="#130c0e"/>
      <stop offset="1" stop-color="#130c0e"/>
    </radialGradient>
    <path d="M404.6 245.9c-15.9 0-28.9-12.9-28.9-28.9 0-15.9 12.9-28.9 28.9-28.9 15.9 0 28.9 12.9 28.9 28.9 0 15.9-12.9 28.9-28.9 28.9z" fill="url(#j)"/>
  </g>
</svg>
