<svg xmlns="http://www.w3.org/2000/svg" width="434" height="434" viewBox="0 0 434 434">
  <circle cx="217" cy="217" r="217" fill="#090"/>
  <path d="M367.7 106.8l-.8-.8c-12.7-12.7-33.6-12.7-46.3 0l-151 151-56.1-56.1c-12.7-12.7-33.6-12.7-46.3 0l-.8.8c-12.7 12.7-12.7 33.5 0 46.3l80.1 80.1c12.7 12.7 33.6 12.7 46.3 0l175-175c12.6-12.8 12.6-33.6-.1-46.3z" fill="#fff"/>
</svg>
