<svg version="1.1" id="Layer_1" xmlns="http://www.w3.org/2000/svg" x="0" y="0" width="434" height="434" viewBox="0 0 434 434" xml:space="preserve">
  <style>
    .st1{fill:#fff}
  </style>
  <path d="M434 213.7c1.8 119.8-93.9 218.4-213.7 220.2C100.4 435.8 1.8 340.1 0 220.3-1.8 100.4 93.9 1.8 213.7 0 333.6-1.8 432.2 93.9 434 213.7z" fill="#fc0"/>
  <path class="st1" d="M217 271c-18.4 0-33.3 14.9-33.3 33.3s14.9 33.3 33.3 33.3 33.3-14.9 33.3-33.3S235.4 271 217 271zM244.8 224.6c3.2-63.5 1.9-36.2 5.5-123 0-43.7-66.6-43.6-66.6 0 3.6 86.8 2.4 59.5 5.5 123 1.5 35.1 54 35.2 55.6 0z"/>
</svg>
